macros/adc_sar_controller/verilog/tb/sar_adc_8bit_tb.vcd
$date
	Thu Nov 27 22:19:36 2025
$end
$version
	Icarus Verilog
$end
$timescale
	1ps
$end
$scope module sar_adc_8bit_tb $end
$var wire 1 ! spi_sclk $end
$var wire 1 " spi_miso $end
$var wire 1 # done $end
$var wire 8 $ dac_bits [7:0] $end
$var parameter 32 % Tclk $end
$var reg 1 & clk $end
$var reg 1 ' comp_in $end
$var reg 1 ( reset_n $end
$var reg 1 ) start $end
$var integer 32 * dac_val [31:0] $end
$var integer 32 + tick_cnt [31:0] $end
$var integer 32 , vin_level [31:0] $end
$scope module uut $end
$var wire 1 & clk $end
$var wire 1 ' comp_in $end
$var wire 8 - dac_bits [7:0] $end
$var wire 1 # done $end
$var wire 1 . n104 $end
$var wire 1 / n106 $end
$var wire 1 0 n107 $end
$var wire 1 1 n112 $end
$var wire 1 2 n132 $end
$var wire 8 3 n15 [7:0] $end
$var wire 1 4 n212 $end
$var wire 1 5 n214 $end
$var wire 1 6 n215 $end
$var wire 1 7 n216 $end
$var wire 1 8 n217 $end
$var wire 1 9 n218 $end
$var wire 1 : n220 $end
$var wire 1 ; n221 $end
$var wire 1 < n222 $end
$var wire 1 = n223 $end
$var wire 1 > n224 $end
$var wire 1 ? n225 $end
$var wire 1 @ n226 $end
$var wire 1 A n227 $end
$var wire 1 B n228 $end
$var wire 1 C n24 $end
$var wire 1 D n247 $end
$var wire 1 E n249 $end
$var wire 1 F n250 $end
$var wire 1 G n251 $end
$var wire 1 H n252 $end
$var wire 1 I n253 $end
$var wire 1 J n255 $end
$var wire 1 K n256 $end
$var wire 1 L n257 $end
$var wire 1 M n258 $end
$var wire 1 N n259 $end
$var wire 1 O n260 $end
$var wire 1 P n261 $end
$var wire 1 Q n262 $end
$var wire 1 R n263 $end
$var wire 1 S n282 $end
$var wire 1 T n284 $end
$var wire 1 U n285 $end
$var wire 1 V n286 $end
$var wire 1 W n287 $end
$var wire 1 X n288 $end
$var wire 1 Y n290 $end
$var wire 1 Z n291 $end
$var wire 1 [ n292 $end
$var wire 1 \ n293 $end
$var wire 1 ] n294 $end
$var wire 1 ^ n295 $end
$var wire 1 _ n296 $end
$var wire 1 ` n297 $end
$var wire 1 a n298 $end
$var wire 1 b n317 $end
$var wire 1 c n319 $end
$var wire 1 d n320 $end
$var wire 1 e n321 $end
$var wire 1 f n322 $end
$var wire 1 g n323 $end
$var wire 1 h n325 $end
$var wire 1 i n326 $end
$var wire 1 j n327 $end
$var wire 1 k n328 $end
$var wire 1 l n329 $end
$var wire 1 m n330 $end
$var wire 1 n n331 $end
$var wire 1 o n332 $end
$var wire 1 p n333 $end
$var wire 1 ( reset_n $end
$var wire 1 " spi_miso $end
$var wire 1 ! spi_sclk $end
$var wire 1 ) start $end
$var wire 32 q n98 [31:0] $end
$var wire 3 r n97 [2:0] $end
$var wire 12 s n95 [11:0] $end
$var wire 1 t n93 $end
$var wire 4 u n91 [3:0] $end
$var wire 3 v n89 [2:0] $end
$var wire 8 w n87 [7:0] $end
$var wire 3 x n86 [2:0] $end
$var wire 3 y n83 [2:0] $end
$var wire 32 z n82 [31:0] $end
$var wire 32 { n80 [31:0] $end
$var wire 8 | n79 [7:0] $end
$var wire 12 } n78 [11:0] $end
$var wire 31 ~ n77 [30:0] $end
$var wire 31 !" n75 [30:0] $end
$var wire 1 "" n74 $end
$var wire 32 #" n72 [31:0] $end
$var wire 12 $" n71 [11:0] $end
$var wire 12 %" n70 [11:0] $end
$var wire 1 &" n69 $end
$var wire 32 '" n67 [31:0] $end
$var wire 1 (" n66 $end
$var wire 8 )" n61 [7:0] $end
$var wire 1 *" n54 $end
$var wire 2 +" n52 [1:0] $end
$var wire 3 ," n51 [2:0] $end
$var wire 2 -" n49 [1:0] $end
$var wire 32 ." n48 [31:0] $end
$var wire 32 /" n46 [31:0] $end
$var wire 1 0" n45 $end
$var wire 32 1" n43 [31:0] $end
$var wire 1 2" n42 $end
$var wire 1 3" n37 $end
$var wire 1 4" n351 $end
$var wire 8 5" n350 [7:0] $end
$var wire 2 6" n35 [1:0] $end
$var wire 1 7" n349 $end
$var wire 1 8" n348 $end
$var wire 1 9" n347 $end
$var wire 1 :" n346 $end
$var wire 1 ;" n345 $end
$var wire 1 <" n344 $end
$var wire 1 =" n343 $end
$var wire 1 >" n342 $end
$var wire 1 ?" n341 $end
$var wire 1 @" n340 $end
$var wire 1 A" n339 $end
$var wire 1 B" n338 $end
$var wire 1 C" n337 $end
$var wire 1 D" n336 $end
$var wire 1 E" n335 $end
$var wire 1 F" n334 $end
$var wire 3 G" n33 [2:0] $end
$var wire 1 H" n324 $end
$var wire 1 I" n318 $end
$var wire 1 J" n316 $end
$var wire 8 K" n315 [7:0] $end
$var wire 1 L" n314 $end
$var wire 1 M" n313 $end
$var wire 1 N" n312 $end
$var wire 1 O" n311 $end
$var wire 1 P" n310 $end
$var wire 8 Q" n31 [7:0] $end
$var wire 1 R" n309 $end
$var wire 1 S" n308 $end
$var wire 1 T" n307 $end
$var wire 1 U" n306 $end
$var wire 1 V" n305 $end
$var wire 1 W" n304 $end
$var wire 1 X" n303 $end
$var wire 1 Y" n302 $end
$var wire 1 Z" n301 $end
$var wire 1 [" n300 $end
$var wire 1 \" n299 $end
$var wire 8 ]" n29 [7:0] $end
$var wire 1 ^" n289 $end
$var wire 1 _" n283 $end
$var wire 1 `" n281 $end
$var wire 8 a" n280 [7:0] $end
$var wire 1 b" n279 $end
$var wire 1 c" n278 $end
$var wire 1 d" n277 $end
$var wire 1 e" n276 $end
$var wire 1 f" n275 $end
$var wire 1 g" n274 $end
$var wire 1 h" n273 $end
$var wire 1 i" n272 $end
$var wire 1 j" n271 $end
$var wire 1 k" n270 $end
$var wire 3 l" n27 [2:0] $end
$var wire 1 m" n269 $end
$var wire 1 n" n268 $end
$var wire 1 o" n267 $end
$var wire 1 p" n266 $end
$var wire 1 q" n265 $end
$var wire 1 r" n264 $end
$var wire 1 s" n254 $end
$var wire 1 t" n248 $end
$var wire 1 u" n246 $end
$var wire 8 v" n245 [7:0] $end
$var wire 1 w" n244 $end
$var wire 1 x" n243 $end
$var wire 1 y" n242 $end
$var wire 1 z" n241 $end
$var wire 1 {" n240 $end
$var wire 1 |" n239 $end
$var wire 1 }" n238 $end
$var wire 1 ~" n237 $end
$var wire 1 !# n236 $end
$var wire 1 "# n235 $end
$var wire 1 ## n234 $end
$var wire 1 $# n233 $end
$var wire 1 %# n232 $end
$var wire 1 &# n231 $end
$var wire 1 '# n230 $end
$var wire 1 (# n229 $end
$var wire 1 )# n219 $end
$var wire 1 *# n213 $end
$var wire 1 +# n211 $end
$var wire 6 ,# n136 [5:0] $end
$var wire 1 -# n135 $end
$var wire 4 .# n133 [3:0] $end
$var wire 1 /# n131 $end
$var wire 1 0# n129 $end
$var wire 4 1# n128 [3:0] $end
$var wire 3 2# n127 [2:0] $end
$var wire 1 3# n125 $end
$var wire 4 4# n122 [3:0] $end
$var wire 32 5# n121 [31:0] $end
$var wire 32 6# n119 [31:0] $end
$var wire 1 7# n118 $end
$var wire 32 8# n116 [31:0] $end
$var wire 3 9# n113 [2:0] $end
$var wire 1 :# n111 $end
$var wire 3 ;# n109 [2:0] $end
$var wire 12 <# n108 [11:0] $end
$var wire 3 =# n105 [2:0] $end
$var wire 3 ># n103 [2:0] $end
$var wire 3 ?# n101 [2:0] $end
$var wire 32 @# n100 [31:0] $end
$var reg 12 A# accum [11:0] $end
$var reg 3 B# bit_idx [2:0] $end
$var reg 1 C# comp_meta $end
$var reg 1 D# comp_sync $end
$var reg 1 E# n138 $end
$var reg 1 F# n141 $end
$var reg 3 G# n146 [2:0] $end
$var reg 8 H# n148 [7:0] $end
$var reg 8 I# n150 [7:0] $end
$var reg 3 J# n152 [2:0] $end
$var reg 2 K# n155 [1:0] $end
$var reg 4 L# n157 [3:0] $end
$var reg 1 M# n159 $end
$var reg 12 N# n161 [11:0] $end
$var reg 3 O# n163 [2:0] $end
$var reg 1 P# n198 $end
$var reg 1 Q# n199 $end
$var reg 3 R# n200 [2:0] $end
$var reg 8 S# n201 [7:0] $end
$var reg 8 T# n202 [7:0] $end
$var reg 3 U# n203 [2:0] $end
$var reg 2 V# n204 [1:0] $end
$var reg 4 W# n205 [3:0] $end
$var reg 1 X# n206 $end
$var reg 1 Y# n207 $end
$var reg 1 Z# n208 $end
$var reg 12 [# n209 [11:0] $end
$var reg 3 \# n210 [2:0] $end
$var reg 3 ]# osr_cnt [2:0] $end
$var reg 8 ^# result_reg [7:0] $end
$var reg 1 _# sclk_int $end
$var reg 4 `# shift_idx [3:0] $end
$var reg 3 a# st [2:0] $end
$var reg 8 b# trial_reg [7:0] $end
$var reg 2 c# wait_cnt [1:0] $end
$upscope $end
$upscope $end
$enddefinitions $end
$comment Show the parameter values. $end
$dumpall
b101000 %
$end
#0
$dumpvars
b0 c#
b0 b#
b0 a#
b0 `#
0_#
b0 ^#
b0 ]#
b0 \#
b0 [#
0Z#
0Y#
0X#
b0 W#
b0 V#
b111 U#
b0 T#
b0 S#
b0 R#
0Q#
0P#
b0 O#
b0 N#
0M#
b0 L#
b0 K#
b111 J#
b0 I#
b0 H#
b0 G#
0F#
0E#
0D#
0C#
b111 B#
b0 A#
b110 @#
b110 ?#
b1 >#
b110 =#
b0 <#
b0 ;#
0:#
b0 9#
b0 8#
17#
b0 6#
b11111111111111111111111111111111 5#
b1111 4#
13#
b0 2#
b0 1#
00#
0/#
b0 .#
0-#
b1 ,#
1+#
1*#
1)#
0(#
0'#
0&#
0%#
0$#
0##
0"#
0!#
0~"
0}"
0|"
0{"
0z"
0y"
0x"
1w"
b10000000 v"
1u"
1t"
1s"
0r"
0q"
0p"
0o"
0n"
0m"
b0 l"
0k"
0j"
0i"
0h"
0g"
0f"
0e"
0d"
0c"
1b"
b10000000 a"
1`"
1_"
1^"
b0 ]"
0\"
0["
0Z"
0Y"
0X"
0W"
0V"
0U"
0T"
0S"
0R"
b0 Q"
0P"
0O"
0N"
0M"
0L"
b0 K"
1J"
1I"
1H"
b111 G"
0F"
0E"
0D"
0C"
0B"
0A"
0@"
0?"
0>"
0="
0<"
0;"
0:"
09"
08"
07"
b0 6"
b0 5"
04"
13"
02"
b0 1"
00"
b0 /"
b1 ."
b1 -"
b0 ,"
b1 +"
0*"
b0 )"
0("
b111 '"
0&"
b0 %"
b0 $"
b0 #"
0""
b0 !"
b0 ~
b0 }
b0 |
b0 {
b1 z
b1 y
b1 x
b0 w
b111 v
b0 u
0t
b0 s
b1 r
b111 q
1p
0o
0n
0m
0l
0k
0j
0i
0h
1g
0f
0e
0d
0c
0b
1a
0`
0_
0^
0]
0\
0[
0Z
0Y
1X
0W
0V
0U
0T
0S
1R
0Q
0P
0O
0N
0M
0L
0K
0J
1I
0H
0G
0F
0E
0D
1C
1B
0A
0@
0?
0>
0=
0<
0;
0:
19
08
07
06
05
04
b0 3
02
11
00
0/
0.
b0 -
b10001100 ,
b0 +
bx *
0)
0(
0'
0&
b0 $
0#
0"
0!
$end
#20000
1'
b0 *
b1 +
1&
#40000
0&
#60000
1C#
1Y#
b10 +
1&
#80000
0&
#100000
b10000000 )"
1D#
1Z#
b11 +
1&
#120000
0&
#140000
b100 +
1&
#160000
0&
#180000
b101 +
1&
#200000
0C
0&
1(
#220000
b110 +
1&
#240000
0&
#260000
b111 +
1&
#280000
0&
#300000
b1000 +
1&
#320000
0&
#340000
b1001 +
1&
#360000
0&
#380000
b1010 +
1&
#400000
0&
#420000
b1011 +
1&
#440000
0&
#460000
b1100 +
1&
#480000
0&
#500000
b1101 +
1&
#520000
0&
#540000
b1110 +
1&
#560000
0&
#580000
b1111 +
1&
#600000
0&
#620000
b10000 +
1&
#640000
0&
#660000
b10001 +
1&
#680000
0&
#700000
b1 G#
b10010 +
b1 l"
1&
1)
#720000
0&
#740000
b10000000 I#
b10 ,#
b1 ,"
b1 2#
03"
12"
b1 a#
b1 R#
b10 G#
b10011 +
b1 l"
1&
0)
#760000
0&
#780000
b1 K#
b100 ,#
b10 l"
b10 ,"
b10 2#
b10000000 Q"
1x"
18"
b10000000 $
b10000000 -
b10000000 3
02"
1*"
b10 a#
b10000000 b#
b10 R#
b10000000 T#
b10100 +
1&
#800000
0&
#820000
b10 K#
b10 +"
b10 -"
b1 6"
b1 1"
b10 ."
b1 /"
b1 c#
b1 V#
b10000000 *
b10101 +
1&
#840000
0&
#860000
b11 G#
b11 ,"
b11 -"
b10 6"
10"
b10 1"
b11 ."
b10 /"
b10 c#
b10 V#
b10110 +
1&
#880000
0&
#900000
b0 I#
b10000000 H#
b100 G#
b1000 ,#
b11 l"
b11 2#
0*"
1("
b11 a#
b11 R#
b10111 +
1&
#920000
0&
#940000
b110 J#
b1 G#
b10000 ,#
b10000000 s
b100 l"
b100 2#
b10000000 ]"
b10000000 $"
b10000000 %"
b10000000 w
1c"
1M"
b0 Q"
0x"
08"
0("
1:#
b100 a#
b10000000 ^#
b0 b#
b100 R#
b10000000 S#
b0 T#
b11000 +
1&
#960000
0&
#980000
b11000000 )"
b11000000 a"
b1000000 v"
b10000000 K"
1y"
1d"
b101 =#
0w"
1A
1Q
1L"
1`
1o
b0 K#
b1000000 I#
b10 G#
b101 ?#
0B
1:
0R
1J
0a
1Y
0p
1h
b10 ,#
b110 G"
b110 '"
b101 @#
b110 q
0)#
0s"
0^"
0H"
b1 l"
b1 2#
b110 B#
12"
0:#
b1 a#
b110 U#
b1 R#
b11001 +
1&
#1000000
0&
#1020000
b1 K#
b100 ,#
b10 ,"
b1 -"
b10 l"
b10 2#
b1000000 Q"
1z"
1:"
b11000000 $
b11000000 -
b11000000 3
b0 6"
00"
b0 1"
b1 ."
b0 /"
b1 +"
02"
1*"
b10 a#
b1000000 b#
b0 c#
b10 R#
b1000000 T#
b0 V#
b11010 +
1&
#1040000
0&
#1060000
b10 K#
b10 +"
b10 -"
b1 6"
b1 1"
b10 ."
b1 /"
b1 c#
b1 V#
0'
b11000000 *
b11011 +
1&
#1080000
0&
#1100000
b11 G#
b11 ,"
b11 -"
b10 6"
10"
b10 1"
b11 ."
b10 /"
b10 c#
0C#
b10 V#
0Y#
b11100 +
1&
#1120000
0&
#1140000
b0 I#
b100 G#
b1000 ,#
b11 l"
b11 2#
b10000000 )"
0*"
1("
b11 a#
0D#
b11 R#
0Z#
b11101 +
1&
#1160000
0&
#1180000
b101 J#
b1 G#
b10000 ,#
b100 l"
b100 2#
b0 Q"
0z"
0:"
b10000000 $
b10000000 -
b10000000 3
0("
1:#
b100 a#
b0 b#
b100 R#
b0 T#
b11110 +
1&
#1200000
0&
#1220000
b10100000 a"
b10000000 )"
1{"
b100000 v"
1f"
b10000000 K"
1@
0y"
1P
0d"
1_
1n
b100 =#
18
0w"
0A
1H
0Q
1W
1L"
0`
1f
0o
b0 K#
b100000 I#
b10 G#
b100 ?#
09
15
0B
0:
0I
1E
0R
0J
0X
1T
0a
0Y
0g
1c
0p
0h
b10 ,#
b101 G"
b101 '"
b100 @#
b101 q
0*#
1)#
0t"
1s"
0_"
1^"
0I"
1H"
b1 l"
b1 2#
b101 B#
12"
0:#
b1 a#
b101 U#
b1 R#
1'
b10000000 *
b11111 +
1&
#1240000
0&
#1260000
b1 K#
b100 ,#
b10 ,"
b1 -"
b10 l"
b10 2#
b100000 Q"
1|"
1<"
b10100000 $
b10100000 -
b10100000 3
b0 6"
00"
b0 1"
b1 ."
b0 /"
b1 +"
02"
1*"
b10 a#
b100000 b#
b0 c#
1C#
b10 R#
b100000 T#
b0 V#
1Y#
b100000 +
1&
#1280000
0&
#1300000
b10 K#
b10 +"
b10 -"
b1 6"
b1 1"
b10 ."
b1 /"
b10100000 )"
b1 c#
1D#
b1 V#
1Z#
0'
b10100000 *
b100001 +
1&
#1320000
0&
#1340000
b11 G#
b11 ,"
b11 -"
b10 6"
10"
b10 1"
b11 ."
b10 /"
b10 c#
0C#
b10 V#
0Y#
b100010 +
1&
#1360000
0&
#1380000
b0 I#
b100 G#
b1000 ,#
b11 l"
b11 2#
b10000000 )"
0*"
1("
b11 a#
0D#
b11 R#
0Z#
b100011 +
1&
#1400000
0&
#1420000
b100 J#
b1 G#
b10000 ,#
b100 l"
b100 2#
b0 Q"
0|"
0<"
b10000000 $
b10000000 -
b10000000 3
0("
1:#
b100 a#
b0 b#
b100 R#
b0 T#
b100100 +
1&
#1440000
0&
#1460000
b10000 v"
b10010000 a"
1}"
1h"
b11 =#
0{"
1?
0f"
1O
1^
1m
b0 K#
b10000 I#
b10 G#
b11 ?#
0@
1:
0P
1J
0_
1Y
0n
1h
b10 ,#
b100 G"
b100 '"
b11 @#
b100 q
0)#
0s"
0^"
0H"
b1 l"
b1 2#
b100 B#
12"
0:#
b1 a#
b100 U#
b1 R#
1'
b10000000 *
b100101 +
1&
#1480000
0&
#1500000
b1 K#
b100 ,#
b10 ,"
b1 -"
b10 l"
b10 2#
b10000 Q"
1~"
1>"
b10010000 $
b10010000 -
b10010000 3
b0 6"
00"
b0 1"
b1 ."
b0 /"
b1 +"
02"
1*"
b10 a#
b10000 b#
b0 c#
1C#
b10 R#
b10000 T#
b0 V#
1Y#
b100110 +
1&
#1520000
0&
#1540000
b10 K#
b10 +"
b10 -"
b1 6"
b1 1"
b10 ."
b1 /"
b10010000 )"
b1 c#
1D#
b1 V#
1Z#
0'
b10010000 *
b100111 +
1&
#1560000
0&
#1580000
b11 G#
b11 ,"
b11 -"
b10 6"
10"
b10 1"
b11 ."
b10 /"
b10 c#
0C#
b10 V#
0Y#
b101000 +
1&
#1600000
0&
#1620000
b0 I#
b100 G#
b1000 ,#
b11 l"
b11 2#
b10000000 )"
0*"
1("
b11 a#
0D#
b11 R#
0Z#
b101001 +
1&
#1640000
0&
#1660000
b11 J#
b1 G#
b10000 ,#
b100 l"
b100 2#
b0 Q"
0~"
0>"
b10000000 $
b10000000 -
b10000000 3
0("
1:#
b100 a#
b0 b#
b100 R#
b0 T#
b101010 +
1&
#1680000
0&
#1700000
1!#
b1000 v"
1j"
b10001000 a"
1>
0}"
1N
0h"
1]
1l
b10 =#
17
0{"
0?
1G
0f"
0O
1V
0^
1e
0m
b0 K#
b1000 I#
b10 G#
b10 ?#
08
14
05
0@
0:
0H
1D
0E
0P
0J
0W
1S
0T
0_
0Y
0f
1b
0c
0n
0h
b10 ,#
b11 G"
b11 '"
b10 @#
b11 q
0+#
1*#
1)#
0u"
1t"
1s"
0`"
1_"
1^"
0J"
1I"
1H"
b1 l"
b1 2#
b11 B#
12"
0:#
b1 a#
b11 U#
b1 R#
1'
b10000000 *
b101011 +
1&
#1720000
0&
#1740000
b1 K#
b100 ,#
b10 ,"
b1 -"
b10 l"
b10 2#
b1000 Q"
1"#
1@"
b10001000 $
b10001000 -
b10001000 3
b0 6"
00"
b0 1"
b1 ."
b0 /"
b1 +"
02"
1*"
b10 a#
b1000 b#
b0 c#
1C#
b10 R#
b1000 T#
b0 V#
1Y#
b101100 +
1&
#1760000
0&
#1780000
b10 K#
b10 +"
b10 -"
b1 6"
b1 1"
b10 ."
b1 /"
b10001000 )"
b1 c#
1D#
b1 V#
1Z#
b10001000 *
b101101 +
1&
#1800000
0&
#1820000
b11 G#
b11 ,"
b11 -"
b10 6"
10"
b10 1"
b11 ."
b10 /"
b10 c#
b10 V#
b101110 +
1&
#1840000
0&
#1860000
b0 I#
b10001000 H#
b100 G#
b1000 ,#
b11 l"
b11 2#
0*"
1("
b11 a#
b11 R#
b101111 +
1&
#1880000
0&
#1900000
b10 J#
b1 G#
b10000 ,#
b10001000 s
b100 l"
b100 2#
b10001000 ]"
b10001000 $"
b10001000 %"
b10001000 w
1k"
1V"
b0 Q"
0"#
0@"
0("
1:#
b100 a#
b10001000 ^#
b0 b#
b100 R#
b10001000 S#
b0 T#
b110000 +
1&
#1920000
0&
#1940000
b10001100 )"
b10001100 a"
b100 v"
b10001000 K"
1##
1m"
b1 =#
0!#
1=
1M
1U"
1\
1k
b0 K#
b100 I#
b10 G#
b1 ?#
0>
1:
0N
1J
0]
1Y
0l
1h
b10 ,#
b10 G"
b10 '"
b1 @#
b10 q
0)#
0s"
0^"
0H"
b1 l"
b1 2#
b10 B#
12"
0:#
b1 a#
b10 U#
b1 R#
b110001 +
1&
#1960000
0&
#1980000
b1 K#
b100 ,#
b10 ,"
b1 -"
b10 l"
b10 2#
b100 Q"
1$#
1B"
b10001100 $
b10001100 -
b10001100 3
b0 6"
00"
b0 1"
b1 ."
b0 /"
b1 +"
02"
1*"
b10 a#
b100 b#
b0 c#
b10 R#
b100 T#
b0 V#
b110010 +
1&
#2000000
0&
#2020000
b10 K#
b10 +"
b10 -"
b1 6"
b1 1"
b10 ."
b1 /"
b1 c#
b1 V#
0'
b10001100 *
b110011 +
1&
#2040000
0&
#2060000
b11 G#
b11 ,"
b11 -"
b10 6"
10"
b10 1"
b11 ."
b10 /"
b10 c#
0C#
b10 V#
0Y#
b110100 +
1&
#2080000
0&
#2100000
b0 I#
b100 G#
b1000 ,#
b11 l"
b11 2#
b10001000 )"
0*"
1("
b11 a#
0D#
b11 R#
0Z#
b110101 +
1&
#2120000
0&
#2140000
b1 J#
b1 G#
b10000 ,#
b100 l"
b100 2#
b0 Q"
0$#
0B"
b10001000 $
b10001000 -
b10001000 3
0("
1:#
b100 a#
b0 b#
b100 R#
b0 T#
b110110 +
1&
#2160000
0&
#2180000
b10001010 a"
b10001000 )"
1%#
b10 v"
1o"
b10001000 K"
1<
0##
1L
0m"
1[
1j
b0 =#
16
0!#
0=
1F
0M
1U
1U"
0\
1d
0k
b0 K#
b10 I#
b10 G#
b0 ?#
07
15
0>
0:
0G
1E
0N
0J
0V
1T
0]
0Y
0e
1c
0l
0h
b10 ,#
b1 G"
b1 '"
b0 @#
b1 q
0*#
1)#
0t"
1s"
0_"
1^"
0I"
1H"
b1 l"
b1 2#
b1 B#
12"
0:#
b1 a#
b1 U#
b1 R#
1'
b10001000 *
b110111 +
1&
#2200000
0&
#2220000
b1 K#
b100 ,#
b10 ,"
b1 -"
b10 l"
b10 2#
b10 Q"
1&#
1D"
b10001010 $
b10001010 -
b10001010 3
b0 6"
00"
b0 1"
b1 ."
b0 /"
b1 +"
02"
1*"
b10 a#
b10 b#
b0 c#
1C#
b10 R#
b10 T#
b0 V#
1Y#
b111000 +
1&
#2240000
0&
#2260000
b10 K#
b10 +"
b10 -"
b1 6"
b1 1"
b10 ."
b1 /"
b10001010 )"
b1 c#
1D#
b1 V#
1Z#
b10001010 *
b111001 +
1&
#2280000
0&
#2300000
b11 G#
b11 ,"
b11 -"
b10 6"
10"
b10 1"
b11 ."
b10 /"
b10 c#
b10 V#
b111010 +
1&
#2320000
0&
#2340000
b0 I#
b10001010 H#
b100 G#
b1000 ,#
b11 l"
b11 2#
0*"
1("
b11 a#
b11 R#
b111011 +
1&
#2360000
0&
#2380000
b0 J#
b1 G#
b10000 ,#
b10001010 s
b100 l"
b100 2#
b10001010 ]"
b10001010 $"
b10001010 %"
b10001010 w
1p"
1Z"
b0 Q"
0&#
0D"
0("
1:#
b100 a#
b10001010 ^#
b0 b#
b100 R#
b10001010 S#
b0 T#
b111100 +
1&
#2400000
0&
#2420000
b10001011 )"
b10001011 a"
b1 v"
b10001010 K"
1'#
1q"
0%#
1;
1K
1Y"
1Z
1i
b0 K#
b1 I#
b10 G#
b111 =#
b10001010 <#
b1 ;#
b111 ?#
0<
1:
0L
1J
0[
1Y
0j
1h
b10 ,#
b0 G"
1&"
b0 '"
b11111111111111111111111111111111 @#
b0 q
0)#
0s"
0^"
0H"
b1 l"
b1 2#
b0 B#
12"
0:#
b1 a#
b0 U#
b1 R#
b111101 +
1&
#2440000
0&
#2460000
b1 K#
b100 ,#
b10 ,"
b1 -"
b10 l"
b10 2#
b1 Q"
1(#
1F"
b10001011 $
b10001011 -
b10001011 3
b0 6"
00"
b0 1"
b1 ."
b0 /"
b1 +"
02"
1*"
b10 a#
b1 b#
b0 c#
b10 R#
b1 T#
b0 V#
b111110 +
1&
#2480000
0&
#2500000
b10 K#
b10 +"
b10 -"
b1 6"
b1 1"
b10 ."
b1 /"
b1 c#
b1 V#
b10001011 *
b111111 +
1&
#2520000
0&
#2540000
b11 G#
b11 ,"
b11 -"
b10 6"
10"
b10 1"
b11 ."
b10 /"
b10 c#
b10 V#
b1000000 +
1&
#2560000
0&
#2580000
b0 I#
b10001011 H#
b100 G#
b1000 ,#
b11 l"
b11 2#
0*"
1("
b11 a#
b11 R#
b1000001 +
1&
#2600000
0&
#2620000
b1 O#
b10001011 N#
b111 J#
b1 G#
b10001011 <#
b10000 ,#
b10001011 s
b100 l"
b100 2#
b10001011 ]"
b10001011 $"
b10001011 %"
b10001011 w
1r"
1\"
b0 Q"
0(#
0F"
0("
1:#
b100 a#
14"
b10001011 ^#
b0 b#
b100 R#
b10001011 S#
b0 T#
b1000010 +
1&
#2640000
0&
#2660000
b10000000 v"
b1011 K"
1w"
0!#
0'#
0L"
1U"
1["
b10 r
b100010 |
1B
0>
06
0%#
0;
1R
0N
0F
0K
1a
0]
0U
1Y"
0Z
1p
0l
0d
0i
b0 K#
b10000000 I#
b10 G#
b10 y
b100010 }
b110 =#
b110 ?#
04
19
07
05
0<
0:
0D
1I
0G
0E
0L
0J
0S
1X
0V
0T
0[
0Y
0b
1g
0e
0c
0j
0h
b10 ,#
b1 #"
b10 z
b1 {
b100010110 s
b100010 ~
b10001011 !"
b111 G"
0&"
b111 '"
b110 @#
b111 q
1+#
1*#
1)#
1u"
1t"
1s"
1`"
1_"
1^"
1J"
1I"
1H"
b1 l"
b1 2#
b1 ]#
b100010110 $"
b10001011 A#
b111 B#
12"
0:#
b1 a#
b1 \#
b10001011 [#
b111 U#
b1 R#
b1000011 +
1&
#2680000
0&
#2700000
b1 K#
b100 ,#
b10 ,"
b1 -"
b10 l"
b10 2#
b10000000 Q"
1x"
18"
b0 6"
00"
b0 1"
b1 ."
b0 /"
b1 +"
02"
1*"
b10 a#
b10000000 b#
b0 c#
b10 R#
b10000000 T#
b0 V#
b1000100 +
1&
#2720000
0&
#2740000
b10 K#
b10 +"
b10 -"
b1 6"
b1 1"
b10 ."
b1 /"
b1 c#
b1 V#
b1000101 +
1&
#2760000
0&
#2780000
b11 G#
b11 ,"
b11 -"
b10 6"
10"
b10 1"
b11 ."
b10 /"
b10 c#
b10 V#
b1000110 +
1&
#2800000
0&
#2820000
b0 I#
b100 G#
b1000 ,#
b11 l"
b11 2#
0*"
1("
b11 a#
b11 R#
b1000111 +
1&
#2840000
0&
#2860000
b110 J#
b1 G#
b10000 ,#
b100 l"
b100 2#
b0 Q"
0x"
08"
0("
1:#
b100 a#
b0 b#
b100 R#
b0 T#
b1001000 +
1&
#2880000
0&
#2900000
b11001011 )"
b11001011 a"
b1000000 v"
b10001011 K"
1y"
1d"
b101 =#
0w"
1A
1Q
1L"
1`
1o
b0 K#
b1000000 I#
b10 G#
b101 ?#
0B
1:
0R
1J
0a
1Y
0p
1h
b10 ,#
b110 G"
b110 '"
b101 @#
b110 q
0)#
0s"
0^"
0H"
b1 l"
b1 2#
b110 B#
12"
0:#
b1 a#
b110 U#
b1 R#
b1001001 +
1&
#2920000
0&
#2940000
b1 K#
b100 ,#
b10 ,"
b1 -"
b10 l"
b10 2#
b1000000 Q"
1z"
1:"
b11001011 $
b11001011 -
b11001011 3
b0 6"
00"
b0 1"
b1 ."
b0 /"
b1 +"
02"
1*"
b10 a#
b1000000 b#
b0 c#
b10 R#
b1000000 T#
b0 V#
b1001010 +
1&
#2960000
0&
#2980000
b10 K#
b10 +"
b10 -"
b1 6"
b1 1"
b10 ."
b1 /"
b1 c#
b1 V#
0'
b11001011 *
b1001011 +
1&
#3000000
0&
#3020000
b11 G#
b11 ,"
b11 -"
b10 6"
10"
b10 1"
b11 ."
b10 /"
b10 c#
0C#
b10 V#
0Y#
b1001100 +
1&
#3040000
0&
#3060000
b0 I#
b100 G#
b1000 ,#
b11 l"
b11 2#
b10001011 )"
0*"
1("
b11 a#
0D#
b11 R#
0Z#
b1001101 +
1&
#3080000
0&
#3100000
b101 J#
b1 G#
b10000 ,#
b100 l"
b100 2#
b0 Q"
0z"
0:"
b10001011 $
b10001011 -
b10001011 3
0("
1:#
b100 a#
b0 b#
b100 R#
b0 T#
b1001110 +
1&
#3120000
0&
#3140000
b10101011 a"
b10001011 )"
1{"
b100000 v"
1f"
b10001011 K"
1@
0y"
1P
0d"
1_
1n
b100 =#
18
0w"
0A
1H
0Q
1W
1L"
0`
1f
0o
b0 K#
b100000 I#
b10 G#
b100 ?#
09
15
0B
0:
0I
1E
0R
0J
0X
1T
0a
0Y
0g
1c
0p
0h
b10 ,#
b101 G"
b101 '"
b100 @#
b101 q
0*#
1)#
0t"
1s"
0_"
1^"
0I"
1H"
b1 l"
b1 2#
b101 B#
12"
0:#
b1 a#
b101 U#
b1 R#
1'
b10001011 *
b1001111 +
1&
#3160000
0&
#3180000
b1 K#
b100 ,#
b10 ,"
b1 -"
b10 l"
b10 2#
b100000 Q"
1|"
1<"
b10101011 $
b10101011 -
b10101011 3
b0 6"
00"
b0 1"
b1 ."
b0 /"
b1 +"
02"
1*"
b10 a#
b100000 b#
b0 c#
1C#
b10 R#
b100000 T#
b0 V#
1Y#
b1010000 +
1&
#3200000
0&
#3220000
b10 K#
b10 +"
b10 -"
b1 6"
b1 1"
b10 ."
b1 /"
b10101011 )"
b1 c#
1D#
b1 V#
1Z#
0'
b10101011 *
b1010001 +
1&
#3240000
0&
#3260000
b11 G#
b11 ,"
b11 -"
b10 6"
10"
b10 1"
b11 ."
b10 /"
b10 c#
0C#
b10 V#
0Y#
b1010010 +
1&
#3280000
0&
